{
  "headers": {
    "age": "19407",
    "alt-svc": "h3=\":443\"; ma=86400",
    "cache-control": "public, max-age=85941",
    "content-type": "application/json;charset=utf-8",
    "etag": "W/\"66255134eb1898590839363fb4ed4efa\"",
    "server": "openresty",
    "vary": "accept-encoding, Origin",
    "via": "1.1 7fd88bab22735486702d23ba4e028d86.cloudfront.net (CloudFront)",
    "x-amz-cf-id": "ERNsq6Jlipx3x83Xb3dHMXP1AzsF0SzwHqosU86HdblYmzw05CTcQg==",
    "x-amz-cf-pop": "FRA60-P3",
    "x-az": "us-east-1b",
    "x-cache": "Hit from cloudfront",
    "x-memc": "HIT",
    "x-memc-age": "31",
    "x-memc-expires": "569",
    "x-memc-key": "96911a3a4220fc502d9ea62bd77f628f",
    "x-task-id": "1df73541dc1e499f889ed4641db6f68e"
  },
  "data": {
    "results": [
      {
        "id": 1489271,
        "adult": false
      },
      {
        "id": 1473628,
        "adult": false
      },
      {
        "id": 1278572,
        "adult": false
      },
      {
        "id": 1020047,
        "adult": false
      },
      {
        "id": 1103162,
        "adult": false
      },
      {
        "id": 1188947,
        "adult": false
      },
      {
        "id": 1240469,
        "adult": false
      },
      {
        "id": 1488968,
        "adult": true
      },
      {
        "id": 1450418,
        "adult": false
      },
      {
        "id": 1108193,
        "adult": false
      },
      {
        "id": 1468291,
        "adult": false
      },
      {
        "id": 617126,
        "adult": false
      },
      {
        "id": 962772,
        "adult": false
      },
      {
        "id": 1249660,
        "adult": false
      },
      {
        "id": 1009518,
        "adult": false
      },
      {
        "id": 1388007,
        "adult": false
      },
      {
        "id": 1399424,
        "adult": false
      },
      {
        "id": 1410770,
        "adult": false
      },
      {
        "id": 1413259,
        "adult": false
      },
      {
        "id": 1423588,
        "adult": false
      },
      {
        "id": 1425257,
        "adult": false
      },
      {
        "id": 1427798,
        "adult": false
      },
      {
        "id": 1433983,
        "adult": false
      },
      {
        "id": 1435437,
        "adult": false
      },
      {
        "id": 1443128,
        "adult": false
      },
      {
        "id": 1443787,
        "adult": false
      },
      {
        "id": 1448534,
        "adult": false
      },
      {
        "id": 1451383,
        "adult": false
      },
      {
        "id": 1461001,
        "adult": false
      },
      {
        "id": 1461035,
        "adult": false
      },
      {
        "id": 1463550,
        "adult": false
      },
      {
        "id": 1470788,
        "adult": false
      },
      {
        "id": 1471147,
        "adult": true
      },
      {
        "id": 1471500,
        "adult": false
      },
      {
        "id": 1471502,
        "adult": false
      },
      {
        "id": 1472933,
        "adult": false
      },
      {
        "id": 1473617,
        "adult": false
      },
      {
        "id": 1474642,
        "adult": false
      },
      {
        "id": 1475035,
        "adult": false
      },
      {
        "id": 1475713,
        "adult": false
      },
      {
        "id": 1475718,
        "adult": false
      },
      {
        "id": 1475732,
        "adult": false
      },
      {
        "id": 1476278,
        "adult": false
      },
      {
        "id": 1477983,
        "adult": false
      },
      {
        "id": 1477990,
        "adult": false
      },
      {
        "id": 1477993,
        "adult": false
      },
      {
        "id": 1478008,
        "adult": false
      },
      {
        "id": 1478013,
        "adult": false
      },
      {
        "id": 1481461,
        "adult": false
      },
      {
        "id": 1482557,
        "adult": false
      },
      {
        "id": 1482758,
        "adult": false
      },
      {
        "id": 1483131,
        "adult": false
      },
      {
        "id": 1483135,
        "adult": false
      },
      {
        "id": 1483142,
        "adult": false
      },
      {
        "id": 1483143,
        "adult": false
      },
      {
        "id": 1483147,
        "adult": false
      },
      {
        "id": 1483627,
        "adult": false
      },
      {
        "id": 1484228,
        "adult": false
      },
      {
        "id": 1484921,
        "adult": false
      },
      {
        "id": 1485067,
        "adult": false
      },
      {
        "id": 1487155,
        "adult": false
      },
      {
        "id": 1487356,
        "adult": false
      },
      {
        "id": 1487381,
        "adult": false
      },
      {
        "id": 1488306,
        "adult": false
      },
      {
        "id": 1488324,
        "adult": false
      },
      {
        "id": 1364530,
        "adult": false
      },
      {
        "id": 1375970,
        "adult": false
      },
      {
        "id": 1465605,
        "adult": false
      },
      {
        "id": 741596,
        "adult": false
      },
      {
        "id": 1257009,
        "adult": false
      },
      {
        "id": 1357852,
        "adult": false
      },
      {
        "id": 1374094,
        "adult": false
      },
      {
        "id": 1376484,
        "adult": false
      },
      {
        "id": 1380918,
        "adult": false
      },
      {
        "id": 1409426,
        "adult": false
      },
      {
        "id": 1424400,
        "adult": false
      },
      {
        "id": 1455238,
        "adult": false
      },
      {
        "id": 1461505,
        "adult": false
      },
      {
        "id": 1462725,
        "adult": false
      },
      {
        "id": 1464567,
        "adult": false
      },
      {
        "id": 1468730,
        "adult": false
      },
      {
        "id": 1469641,
        "adult": false
      },
      {
        "id": 1470059,
        "adult": false
      },
      {
        "id": 1470572,
        "adult": false
      },
      {
        "id": 1471954,
        "adult": false
      },
      {
        "id": 1471958,
        "adult": false
      },
      {
        "id": 1473407,
        "adult": false
      },
      {
        "id": 1473565,
        "adult": false
      },
      {
        "id": 1475465,
        "adult": false
      },
      {
        "id": 1480650,
        "adult": false
      },
      {
        "id": 1480652,
        "adult": false
      },
      {
        "id": 1482585,
        "adult": false
      },
      {
        "id": 1488970,
        "adult": false
      },
      {
        "id": 1489175,
        "adult": false
      },
      {
        "id": 1488997,
        "adult": false
      },
      {
        "id": 1489104,
        "adult": false
      },
      {
        "id": 1489267,
        "adult": false
      },
      {
        "id": 1087192,
        "adult": false
      },
      {
        "id": 1489204,
        "adult": false
      },
      {
        "id": 1489256,
        "adult": false
      }
    ],
    "page": 1,
    "total_pages": 3,
    "total_results": 300
  }
}
