{
  "headers": {
    "age": "19406",
    "alt-svc": "h3=\":443\"; ma=86400",
    "cache-control": "public, max-age=85314",
    "content-type": "application/json;charset=utf-8",
    "etag": "W/\"3b3dfab0366d79459d2ed985e2401c5f\"",
    "server": "openresty",
    "vary": "accept-encoding, Origin",
    "via": "1.1 fa8c9f29fb8ef5c537a2a53f4de05240.cloudfront.net (CloudFront)",
    "x-amz-cf-id": "rqr6bLXhGfz1q2JEMOGN117sqvv1jlwQMUWQ8JmGiy-oOqAdRSezCQ==",
    "x-amz-cf-pop": "FRA60-P3",
    "x-az": "us-east-1b",
    "x-cache": "Hit from cloudfront",
    "x-memc": "HIT",
    "x-memc-age": "15",
    "x-memc-expires": "585",
    "x-memc-key": "7a5507a098da7b9b161084bf09730497",
    "x-task-id": "108979e82b494b21a1e63d45841dacff"
  },
  "data": {
    "results": [
      {
        "id": 1322424,
        "adult": false
      },
      {
        "id": 1480326,
        "adult": false
      },
      {
        "id": 1488877,
        "adult": false
      },
      {
        "id": 1489004,
        "adult": false
      },
      {
        "id": 1488998,
        "adult": false
      },
      {
        "id": 1489062,
        "adult": false
      },
      {
        "id": 1488878,
        "adult": false
      },
      {
        "id": 1489006,
        "adult": false
      },
      {
        "id": 1489015,
        "adult": false
      },
      {
        "id": 1489037,
        "adult": false
      },
      {
        "id": 1489048,
        "adult": false
      },
      {
        "id": 1489064,
        "adult": false
      },
      {
        "id": 1489091,
        "adult": false
      },
      {
        "id": 1489094,
        "adult": false
      },
      {
        "id": 1489096,
        "adult": false
      },
      {
        "id": 1489098,
        "adult": false
      },
      {
        "id": 1489019,
        "adult": false
      },
      {
        "id": 1489029,
        "adult": false
      },
      {
        "id": 1489055,
        "adult": false
      },
      {
        "id": 1488961,
        "adult": null
      },
      {
        "id": 1489034,
        "adult": false
      },
      {
        "id": 1439724,
        "adult": false
      },
      {
        "id": 1488311,
        "adult": false
      },
      {
        "id": 1488867,
        "adult": false
      },
      {
        "id": 1488992,
        "adult": false
      },
      {
        "id": 1489109,
        "adult": false
      },
      {
        "id": 1489114,
        "adult": false
      },
      {
        "id": 1488731,
        "adult": false
      },
      {
        "id": 1489017,
        "adult": false
      },
      {
        "id": 1489077,
        "adult": false
      },
      {
        "id": 1488986,
        "adult": false
      },
      {
        "id": 1489002,
        "adult": false
      },
      {
        "id": 1489083,
        "adult": false
      },
      {
        "id": 1489093,
        "adult": false
      },
      {
        "id": 1489080,
        "adult": false
      },
      {
        "id": 1383443,
        "adult": false
      },
      {
        "id": 1489142,
        "adult": false
      },
      {
        "id": 1489147,
        "adult": false
      },
      {
        "id": 1489153,
        "adult": false
      },
      {
        "id": 1301336,
        "adult": false
      },
      {
        "id": 1309707,
        "adult": false
      },
      {
        "id": 1489209,
        "adult": false
      },
      {
        "id": 1489020,
        "adult": false
      },
      {
        "id": 1438969,
        "adult": false
      },
      {
        "id": 1484685,
        "adult": false
      },
      {
        "id": 1488756,
        "adult": false
      },
      {
        "id": 1165096,
        "adult": false
      },
      {
        "id": 1488727,
        "adult": false
      },
      {
        "id": 1489009,
        "adult": false
      },
      {
        "id": 1489146,
        "adult": false
      },
      {
        "id": 240488,
        "adult": false
      },
      {
        "id": 1417800,
        "adult": false
      },
      {
        "id": 175503,
        "adult": false
      },
      {
        "id": 1489272,
        "adult": false
      },
      {
        "id": 2199,
        "adult": false
      },
      {
        "id": 1489268,
        "adult": true
      },
      {
        "id": 1426306,
        "adult": false
      },
      {
        "id": 78,
        "adult": false
      },
      {
        "id": 1489250,
        "adult": false
      },
      {
        "id": 767021,
        "adult": false
      },
      {
        "id": 127046,
        "adult": false
      },
      {
        "id": 1489273,
        "adult": false
      },
      {
        "id": 1432330,
        "adult": false
      },
      {
        "id": 1489274,
        "adult": false
      },
      {
        "id": 34148,
        "adult": false
      },
      {
        "id": 381,
        "adult": false
      },
      {
        "id": 36693,
        "adult": false
      },
      {
        "id": 1489275,
        "adult": false
      },
      {
        "id": 13320,
        "adult": false
      },
      {
        "id": 14612,
        "adult": false
      },
      {
        "id": 45999,
        "adult": false
      },
      {
        "id": 1403500,
        "adult": false
      },
      {
        "id": 1489276,
        "adult": true
      },
      {
        "id": 71376,
        "adult": false
      },
      {
        "id": 1489260,
        "adult": false
      },
      {
        "id": 1489277,
        "adult": false
      },
      {
        "id": 15,
        "adult": false
      },
      {
        "id": 63197,
        "adult": false
      },
      {
        "id": 25237,
        "adult": false
      },
      {
        "id": 82,
        "adult": false
      },
      {
        "id": 3059,
        "adult": false
      },
      {
        "id": 20681,
        "adult": false
      },
      {
        "id": 200112,
        "adult": false
      },
      {
        "id": 1489247,
        "adult": false
      },
      {
        "id": 770,
        "adult": false
      },
      {
        "id": 1450998,
        "adult": false
      },
      {
        "id": 1489278,
        "adult": true
      },
      {
        "id": 1542,
        "adult": false
      },
      {
        "id": 22121,
        "adult": false
      },
      {
        "id": 1489258,
        "adult": false
      },
      {
        "id": 1489279,
        "adult": false
      },
      {
        "id": 575265,
        "adult": false
      },
      {
        "id": 1148706,
        "adult": false
      },
      {
        "id": 1398487,
        "adult": false
      },
      {
        "id": 17165,
        "adult": false
      },
      {
        "id": 607845,
        "adult": false
      },
      {
        "id": 860508,
        "adult": false
      },
      {
        "id": 17144,
        "adult": false
      },
      {
        "id": 1489280,
        "adult": false
      },
      {
        "id": 1489281,
        "adult": false
      }
    ],
    "page": 2,
    "total_pages": 3,
    "total_results": 300
  }
}
