{
  "headers": {
    "age": "19406",
    "alt-svc": "h3=\":443\"; ma=86400",
    "cache-control": "public, max-age=85744",
    "content-type": "application/json;charset=utf-8",
    "etag": "W/\"1f3b54fbe24b2833b32dec9c36fa9158\"",
    "server": "openresty",
    "vary": "accept-encoding, Origin",
    "via": "1.1 7fd88bab22735486702d23ba4e028d86.cloudfront.net (CloudFront)",
    "x-amz-cf-id": "qLNzRBa0OzYgzWbjg2J5E8P0dBUfSDyGcPyZt5mvAKKb7FNBQBFEJA==",
    "x-amz-cf-pop": "FRA60-P3",
    "x-az": "us-east-1a",
    "x-cache": "Hit from cloudfront",
    "x-memc": "MISS, STORE",
    "x-memc-age": "0",
    "x-memc-expires": "600",
    "x-memc-key": "4994fd291ebe1eebf2aa6e9350cfd8c2",
    "x-task-id": "283fac73c39b44e1aa291ef328a8fc79"
  },
  "data": {
    "results": [
      {
        "id": 20629,
        "adult": false
      },
      {
        "id": 1489282,
        "adult": false
      },
      {
        "id": 105184,
        "adult": false
      },
      {
        "id": 1489283,
        "adult": true
      },
      {
        "id": 103,
        "adult": false
      },
      {
        "id": 1489284,
        "adult": false
      },
      {
        "id": 949,
        "adult": false
      },
      {
        "id": 27767,
        "adult": false
      },
      {
        "id": 1479107,
        "adult": false
      },
      {
        "id": 1488675,
        "adult": false
      },
      {
        "id": 1489285,
        "adult": false
      },
      {
        "id": 1488103,
        "adult": false
      },
      {
        "id": 1458043,
        "adult": false
      },
      {
        "id": 637750,
        "adult": false
      },
      {
        "id": 568998,
        "adult": false
      },
      {
        "id": 1489236,
        "adult": false
      },
      {
        "id": 1489159,
        "adult": false
      },
      {
        "id": 574475,
        "adult": false
      },
      {
        "id": 85191,
        "adult": false
      },
      {
        "id": 857,
        "adult": false
      },
      {
        "id": 1358855,
        "adult": false
      },
      {
        "id": 1124566,
        "adult": false
      },
      {
        "id": 697264,
        "adult": false
      },
      {
        "id": 1445379,
        "adult": false
      },
      {
        "id": 650574,
        "adult": false
      },
      {
        "id": 1489286,
        "adult": false
      },
      {
        "id": 1481410,
        "adult": false
      },
      {
        "id": 69540,
        "adult": false
      },
      {
        "id": 184637,
        "adult": false
      },
      {
        "id": 1489287,
        "adult": false
      },
      {
        "id": 1080467,
        "adult": false
      },
      {
        "id": 1021679,
        "adult": false
      },
      {
        "id": 1488216,
        "adult": false
      },
      {
        "id": 1489288,
        "adult": false
      },
      {
        "id": 1308412,
        "adult": false
      },
      {
        "id": 1489289,
        "adult": false
      },
      {
        "id": 1382687,
        "adult": false
      },
      {
        "id": 1437326,
        "adult": false
      },
      {
        "id": 1488713,
        "adult": false
      },
      {
        "id": 1489290,
        "adult": false
      },
      {
        "id": 578354,
        "adult": false
      },
      {
        "id": 1489291,
        "adult": false
      },
      {
        "id": 691018,
        "adult": false
      },
      {
        "id": 1432925,
        "adult": false
      },
      {
        "id": 16869,
        "adult": false
      },
      {
        "id": 1478919,
        "adult": false
      },
      {
        "id": 9567,
        "adult": false
      },
      {
        "id": 1488217,
        "adult": false
      },
      {
        "id": 1489292,
        "adult": false
      },
      {
        "id": 531428,
        "adult": false
      },
      {
        "id": 1083433,
        "adult": false
      },
      {
        "id": 1411612,
        "adult": false
      },
      {
        "id": 57221,
        "adult": false
      },
      {
        "id": 1489293,
        "adult": false
      },
      {
        "id": 1488212,
        "adult": false
      },
      {
        "id": 1288023,
        "adult": false
      },
      {
        "id": 1489294,
        "adult": false
      },
      {
        "id": 496187,
        "adult": false
      },
      {
        "id": 1237824,
        "adult": false
      },
      {
        "id": 1272837,
        "adult": false
      },
      {
        "id": 541671,
        "adult": false
      },
      {
        "id": 1489295,
        "adult": false
      },
      {
        "id": 412012,
        "adult": false
      },
      {
        "id": 1489296,
        "adult": false
      },
      {
        "id": 1403757,
        "adult": false
      },
      {
        "id": 1433884,
        "adult": false
      },
      {
        "id": 826834,
        "adult": false
      },
      {
        "id": 1489297,
        "adult": false
      },
      {
        "id": 1297842,
        "adult": false
      },
      {
        "id": 1489298,
        "adult": true
      },
      {
        "id": 821079,
        "adult": false
      },
      {
        "id": 636769,
        "adult": false
      },
      {
        "id": 1489299,
        "adult": false
      },
      {
        "id": 458044,
        "adult": false
      },
      {
        "id": 814642,
        "adult": false
      },
      {
        "id": 1488514,
        "adult": false
      },
      {
        "id": 884296,
        "adult": false
      },
      {
        "id": 33333,
        "adult": false
      },
      {
        "id": 1488629,
        "adult": false
      },
      {
        "id": 548104,
        "adult": false
      },
      {
        "id": 1383344,
        "adult": false
      },
      {
        "id": 366672,
        "adult": false
      },
      {
        "id": 1489300,
        "adult": true
      },
      {
        "id": 330830,
        "adult": false
      },
      {
        "id": 1213,
        "adult": false
      },
      {
        "id": 1488206,
        "adult": false
      },
      {
        "id": 977266,
        "adult": false
      },
      {
        "id": 1488200,
        "adult": false
      },
      {
        "id": 544596,
        "adult": false
      },
      {
        "id": 956272,
        "adult": false
      },
      {
        "id": 889131,
        "adult": false
      },
      {
        "id": 1488182,
        "adult": false
      },
      {
        "id": 1489301,
        "adult": false
      },
      {
        "id": 1489057,
        "adult": false
      },
      {
        "id": 1488194,
        "adult": false
      },
      {
        "id": 1464680,
        "adult": false
      },
      {
        "id": 1488202,
        "adult": false
      },
      {
        "id": 897160,
        "adult": false
      },
      {
        "id": 2289,
        "adult": false
      },
      {
        "id": 1378776,
        "adult": false
      }
    ],
    "page": 3,
    "total_pages": 3,
    "total_results": 300
  }
}
