{
  "status": 200,
  "statusText": "OK",
  "headers": {
    "cache-control": "public, max-age=22849",
    "content-type": "application/json;charset=utf-8"
  },
  "body": {
    "results": [
      {
        "id": 346698,
        "adult": false
      },
      {
        "id": 258800,
        "adult": false
      },
      {
        "id": 1478557,
        "adult": false
      },
      {
        "id": 1478558,
        "adult": false
      },
      {
        "id": 1338660,
        "adult": false
      },
      {
        "id": 1310877,
        "adult": false
      },
      {
        "id": 673783,
        "adult": false
      },
      {
        "id": 1478559,
        "adult": false
      },
      {
        "id": 275647,
        "adult": false
      },
      {
        "id": 19158,
        "adult": false
      },
      {
        "id": 1478560,
        "adult": false
      },
      {
        "id": 1478561,
        "adult": false
      },
      {
        "id": 921785,
        "adult": false
      },
      {
        "id": 758944,
        "adult": false
      },
      {
        "id": 11791,
        "adult": false
      },
      {
        "id": 245488,
        "adult": true
      },
      {
        "id": 256916,
        "adult": false
      },
      {
        "id": 1478562,
        "adult": false
      },
      {
        "id": 1290170,
        "adult": false
      },
      {
        "id": 284994,
        "adult": false
      },
      {
        "id": 144668,
        "adult": false
      },
      {
        "id": 607346,
        "adult": false
      },
      {
        "id": 24432,
        "adult": false
      },
      {
        "id": 16455,
        "adult": false
      },
      {
        "id": 636565,
        "adult": false
      },
      {
        "id": 35257,
        "adult": false
      },
      {
        "id": 1476169,
        "adult": false
      },
      {
        "id": 1478534,
        "adult": false
      },
      {
        "id": 142246,
        "adult": true
      },
      {
        "id": 83579,
        "adult": false
      },
      {
        "id": 105952,
        "adult": false
      },
      {
        "id": 1478563,
        "adult": false
      },
      {
        "id": 305123,
        "adult": false
      },
      {
        "id": 1429715,
        "adult": false
      },
      {
        "id": 174136,
        "adult": false
      },
      {
        "id": 1307884,
        "adult": true
      },
      {
        "id": 1478564,
        "adult": false
      },
      {
        "id": 1381273,
        "adult": false
      },
      {
        "id": 339877,
        "adult": false
      },
      {
        "id": 174687,
        "adult": false
      },
      {
        "id": 1475510,
        "adult": false
      },
      {
        "id": 1475057,
        "adult": false
      },
      {
        "id": 1459068,
        "adult": false
      },
      {
        "id": 1470413,
        "adult": false
      },
      {
        "id": 859955,
        "adult": true
      },
      {
        "id": 1478546,
        "adult": false
      },
      {
        "id": 1478565,
        "adult": true
      },
      {
        "id": 1478566,
        "adult": false
      },
      {
        "id": 25293,
        "adult": false
      },
      {
        "id": 1478567,
        "adult": false
      },
      {
        "id": 1478568,
        "adult": false
      },
      {
        "id": 1477476,
        "adult": false
      },
      {
        "id": 532897,
        "adult": false
      },
      {
        "id": 605,
        "adult": false
      },
      {
        "id": 1377641,
        "adult": false
      },
      {
        "id": 64397,
        "adult": false
      },
      {
        "id": 437042,
        "adult": false
      },
      {
        "id": 937008,
        "adult": false
      },
      {
        "id": 1478569,
        "adult": false
      },
      {
        "id": 1478570,
        "adult": false
      },
      {
        "id": 836454,
        "adult": false
      },
      {
        "id": 755566,
        "adult": false
      },
      {
        "id": 42891,
        "adult": false
      },
      {
        "id": 1222083,
        "adult": false
      },
      {
        "id": 1469239,
        "adult": false
      },
      {
        "id": 1323784,
        "adult": false
      },
      {
        "id": 1478427,
        "adult": false
      },
      {
        "id": 17692,
        "adult": false
      },
      {
        "id": 999075,
        "adult": false
      },
      {
        "id": 1478571,
        "adult": false
      },
      {
        "id": 1088482,
        "adult": false
      },
      {
        "id": 1467928,
        "adult": false
      },
      {
        "id": 1478245,
        "adult": false
      },
      {
        "id": 36194,
        "adult": false
      },
      {
        "id": 904689,
        "adult": false
      },
      {
        "id": 1478492,
        "adult": false
      },
      {
        "id": 604079,
        "adult": false
      },
      {
        "id": 35161,
        "adult": false
      },
      {
        "id": 1468898,
        "adult": false
      },
      {
        "id": 1478572,
        "adult": false
      },
      {
        "id": 110643,
        "adult": false
      },
      {
        "id": 11220,
        "adult": false
      },
      {
        "id": 1478516,
        "adult": false
      },
      {
        "id": 11683,
        "adult": false
      },
      {
        "id": 1478573,
        "adult": false
      },
      {
        "id": 1410228,
        "adult": false
      },
      {
        "id": 43336,
        "adult": false
      },
      {
        "id": 1084571,
        "adult": false
      },
      {
        "id": 1437787,
        "adult": false
      },
      {
        "id": 1409104,
        "adult": false
      },
      {
        "id": 872162,
        "adult": false
      },
      {
        "id": 380738,
        "adult": false
      },
      {
        "id": 57965,
        "adult": false
      },
      {
        "id": 1478574,
        "adult": false
      },
      {
        "id": 1472668,
        "adult": false
      },
      {
        "id": 1478575,
        "adult": false
      },
      {
        "id": 43048,
        "adult": false
      },
      {
        "id": 67097,
        "adult": false
      },
      {
        "id": 1328912,
        "adult": false
      }
    ],
    "page": 2,
    "total_pages": 2,
    "total_results": 199
  },
  "bodyIsJson": true
}